1.  2𝑥 + 3𝑦 = −1
    3𝑥 + 4𝑦 = 0

    Suma y resta 
     3(2𝑥 + 3𝑦 = −1) = 6x + 9y = -3         |   2x +3(-3) = -1          |   x=4
    -2(3𝑥 + 4𝑦 = 0) = -6x -8y = 0           |   2x -9 = -1              |   y=-3
                    ----------------        |   2x  = -1+9 = 8          |
                      0x +y = -3 => y = -3  |   x = 8/2 = 4  => x =4    |

    sustitucion 
    2𝑥 + 3𝑦 = −1     x = -4y/3          |  x = -4(-3)/3     
    3𝑥 + 4𝑦 = 0     2(-4y/3) +3y = -1   |  x = 4
                    -8y/3 +3y = -1      |--------------
                    3(-8y/3 +3y = -1)   | y = -3
                    -8y +9y = -3        | x = -4
                    y = -3              | 

    igualacion  
    2𝑥 + 3𝑦 = −1    x = -4y/3           |   x = -4(-3)/3
    3𝑥 + 4𝑦 = 0     x = (-1 -3y)/2      |   x = 4
                    -4y/3 = (-1 -3y)/2  |--------------
                    2(-4y) = 3(-1 -3y)  | y = -3
                    -8y = -3 -9y        | x = 4
                    9y-8y = -3          |
                    y = -3              |
-----------------------------------------------------------------------------------------

2.  2𝑥 + 𝑦 = 6
    4𝑥 + 3𝑦 = 14

    Suma y resta 
    -2(2𝑥 +  𝑦 = 6)  = -4x + -2y = -12           |   2𝑥 +  2 = 6             |   x=2
      (4𝑥 + 3𝑦 = 14) =  4𝑥 +  3𝑦 =  14           |   2x = 6 - 2              |   y=2
                    ----------------------       |   2x = 4                  |
                        0x +   y =   2 => y = 2  |   x = 4/2 = 2  => x =2    |
    
    sustitucion
    2𝑥 + 𝑦 = 6          y = 6 -2x           |   y = 6 -2(2) 
    4𝑥 + 3𝑦 = 14        4x +3(6-2x) = 14    |   y = 6 -4
                        4x +18 - 6x = 14    |   y = 2
                        -2x = 14-18         |-----------------
                        -2x = -4            |   y = 2
                        x = 2               |   x = 2
    
    igualacion 
    2𝑥 + 𝑦 = 6          y = 6 -2x           | y = 6 -2(2)
    4𝑥 + 3𝑦 = 14        y = (14 -4x))/3     | y = 6 -4
                        6 -2x = (14 -4x))/3 | y = 2
                        3(6-2x) = 14 - 4x   |-----------------
                        18 -6x = 14 -4x     |  y = 2
                        18-14 = 6x -4x      |  x = 2
                        4 = 2x              |
                        x = 2               |
 

3.  −2𝑥 + 4𝑦 = 7    
    3𝑥 − 5𝑦 = 4

    Suma y resta 
    3(−2𝑥 + 4𝑦 = 7) = -6x + 12y = 21    | -2x + 4(29/2) = 7 | y = 29/2    
    2(3𝑥 − 5𝑦 = 4 ) =  6x - 10y =  8    | -2x +2(29) = 7    | x = 51/2
                    ------------------- | -2x +58 = 7       |
                        0x + 2y = 29    | -2x = 7 -58 = -51 |
                        y = 29/2        | x = 51/2          |


    sustitucion
    −2𝑥 + 4𝑦 = 7     x = (4+5y)/3               |  x = (4+5(29/2))/3    | y = 29/2
    3𝑥 − 5𝑦 = 4      −2((4+5y)/3) + 4𝑦 = 7      |  x = (4+145/2)/3      | x = 51/2 
                     3(−2((4+5y)/3) + 4𝑦 = 7)   |  x = (8/2+145/2)/3    |
                     −2(4+5y) + 12𝑦 = 21        |  x = (153/2)/3        |
                     −8 -10y + 12𝑦 = 21         |  x = (153/(2)(3))     |
                     2y = 21 +8                 |  x = ((51)(3))/((2)(3))
                     y = 29/2                   |  x = 51/2

    igualacion
     −2𝑥 + 4𝑦 = 7   x = (-7+4y)/2       | x=(-7+4(29/2))/2 
      3𝑥 − 5𝑦 = 4   x = (4+5y)/3        | x=(-7+2(29))/2
                    (-7+4y)/2 = (4+5y)/3| x=(-7+58)/2
                    3(-7+4y) = 2(4+5y)  | x=51/2
                    -21 +12y = 8+10y    |-------------------
                    12y -10y = 8 +21    | y = 29/2 
                    2y = 29             | x = 51/2
                    y = 29/2            |

4.  5𝑥 + 2𝑦 = 11
    2𝑥 − 3𝑦 = 12

    Suma y resta 
    3(5𝑥 + 2𝑦 = 11) = 15x + 6y = 33   |  2(3) − 3𝑦 = 12 | x = 3
    2(2𝑥 − 3𝑦 = 12) =  4x - 6y = 24   |  6 -3y = 12     | y = -2
                    ----------------- |  -3y = 12 -6    |
                      19x      = 57   |  -3y = 6        |
                      x= 57/19 = 3    |  y = 6/-3 = -2  |
    
    sustitucion
    5𝑥 + 2𝑦 = 11   x = (12+3y)/2             |  x = (12+3(-2))/2 
    2𝑥 − 3𝑦 = 12   5((12+3y)/2) + 2𝑦 = 11    |  x = (12-6)/2
                   2(5((12+3y)/2) + 2𝑦 = 11) |  x = 6/2 = 3
                   5(12+3y) + 4𝑦 = 22        |--------------------
                   60+15y + 4𝑦 = 22          |  y = -2
                   19y = 22 -60 = -38        |  x =  3
                   y = -38/19 = -2           |
    
    igualacion
    5𝑥 + 2𝑦 = 11    x = (11-2y)/5       | x = (12+3(-2))/2
    2𝑥 − 3𝑦 = 12    x = (12+3y)/2       | x = (12-6)/2
                    (11-2y)/5=(12+3y)/2 | x = 6/2 = 3
                    2(11-2y)=5(12+3y)   |------------------
                    22-4y=60+15y        | y = -2
                    22-60=4y+15y        | x =  3
                    -38=19y             |
                    y = -2              |
    
    Instrucciones: Resolver los siguientes ejercicios aplicando el 
método gráfico y de Cramer para cada uno de los ejercicios.
Ejercicios
1.  4𝑥 + 5𝑦 = 5
    −4𝑥 − 10𝑦 = −7

    Cramer
|s|=| 4   5 | = (4)(10)-(-4)(5) = 40+20 = 60    
    |-4  10 |

|x|=| 5   5 | = (5)(10)-(-7)(5) = 50+35 = 85    
    |-7  10 |

|y|=| 4   5 | = (4)(-7)-(-4)(5) = -28+20 = -8    
    |-4  -7 | 

    x = |x|/|s| = 85/60 = 17/12
    y = |y|/|s| = -8/60 = -2/15



2.  3𝑥 + 2𝑦 = 4
    5𝑥 − 4𝑦 = 6

    Cramer
|s|=| 3   2 | = (3)(-4)-(5)(2) = -12-10 = -22    
    | 5  -4 |

|x|=| 4   2 | = (4)(-4)-(6)(2) = -16-12 = -28    
    | 6  -4 |

|y|=| 3   4 | = (3)(6)-(5)(4) = 18-20 = -2    
    | 5   6 | 

    x = |x|/|s| = -28/-22 = 14/11
    y = |y|/|s| = -2/-22 = 1/11

3.  2𝑥 + 𝑦 = 0
    6𝑥 + 5𝑦 = −2

    Cramer
|s|=| 2   1 | = (2)(5)-(6)(1) = 10-6 = 4    
    | 6   5 |

|x|=| 0   1 | = (0)(5)-(-2)(1) = 0+2 = 2   
    |-2   5 |

|y|=| 2   0 | = (2)(-2)-(6)(0) = -4+0 = -4    
    | 6  -2 |

    x = |x|/|s| = 2/4 = 1/2
    y = |y|/|s| = -4/4 = -1