
Dadas las siguientes matrices, resolver lo indicado.
A = | −5 2 8 |   B =  |  2  4 −6  |  C = | −4 1 9 | 
    |  3 7 4 |        |  3  2  1  |      |  3 6 1 |
    | −3 1 6 |        | −3 −7  9  |      | −7 8 0 |


Matriz Transpuesta 

At = | −5  3 -3 |   Bt =  |  2  3 −3  |  Ct = | −4  3 -7 | 
     |  2  7  1 |         |  4  2 -7  |       |  1  6  8 |
     |  8  4  6 |         | −6  1  9  |       |  9  1  0 |

Determinante 
            
|A| = | −5 2 8 : −5 2 | | |B| = |  2  4 −6  :  2  4 | | |C| = | −4 1 9 : −4 1 |
      |  3 7 4 :  3 7 | |       |  3  2  1  :  3  2 | |       |  3 6 1 :  3 6 |
      | −3 1 6 : −3 1 | |       | −3 −7  9  : -3 -7 | |       | −7 8 0 : −7 8 |
                        |                             | 
 (-5)(7)(6)-(-3)(7)(8)  | (2)(2)(9)-(-3)(2)(-6)       |(-4)(6)(0)-(-7)(6)(9)
+(2)(4)(-3)-(1)(4)(-5)  |+(4)(1)(-3)-(-7)(1)(2)       |+(1)(1)(-7)-(8)(1)(-4)
+(8)(3)(1)-(6)(3)(2)    |+(-6)(3)(-7)-(9)(3)(4)       |+(9)(3)(8)-(0)(3)(1)
                        |                             |
 (-210)+(-24)+(24)      | (36)+(-12)+(126)            |(0)+(-7)+(216)
-(-168)-(-20)-(36)      | -(36)-(-14)-(108)           |-(-378)-(-32)-(0)
                        |                             |
-210-24+24+168+20-36    | 36-12+126-36+14-108         | 0-7+216+378+32+0
|A|= -58                | |B| = 20                    | |C|= 619
---------------------------------------------------------------------
Matriz inversa 


(A)^(-1) =  | −5 2 8 |   
            |  3 7 4 | =  
            | −3 1 6 |

        | Y X X |
|w11| = | X 7 4 | = | 7 4 | =  (7)(6)-(1)(4) = (42)-(4)= 38     
        | X 1 6 |   | 1 6 | 

        |  X Y X |
|w12| = |  3 X 4 | = |  3  4 | = (3)(6)-(4)(-3) = 18+12 = 40
        | -3 X 6 |   | -3  6 | 

        |  X X Y |
|w13| = |  3 7 X | = |  3  7 | = (3)(1)-(-3)(7) = 3+21 = 24
        | −3 1 X |   | -3  1 | 

        | X 2 8 |
|w21| = | Y X X | = | 2  8 | = (2)(6)-(1)(8) = 12-8 = 4
        | X 1 6 |   | 1  6 | 

        | -5 X 8 |
|w22| = |  X Y X | = | -5  8 | = (-5)(6)-(-3)(8) = -30+24 = -6
        | -3 X 6 |   | -3  6 |

        | -5 2 X |
|w23| = |  X X Y | = | -5  2 | = (-5)(1)-(-3)(2) = -5+6 = 1
        | -3 1 X |   | -3  1 |

        |  X 2 8 |
|w31| = |  X 7 4 | = | 2 8 | = (2)(4)-(7)(8) = 8-56 = -48
        |  Y X X |   | 7 4 | 

        | -5 X 8 |
|w32| = |  3 X 4 | = | -5 8 | = (-5)(4)-(3)(8) = -20-24 = -44
        |  X Y X |   |  3 4 |

        | -5 2 X |
|w33| = |  3 7 X | = | -5 2 | = (-5)(7)-(3)(2) = -35-6 = -41
        |  X X Y |   |  3 7 | 

adj(A) =  | ( 1)( 38)  (-1)( 40)  ( 1)( 24) |     |  38  -40   24 |
          | (-1)(  4)  ( 1)( -6)  (-1)(  1) | =   |  -4   -6   -1 | 
          | ( 1)(-48)  (-1)(-44)  ( 1)(-41) |     | -48   44  -41 |

          |  38 -4 -48 |                                 adj(A)t
adj(A)t = | -40 -6  -1 |    det(A) = -58     (A)^(-1) = ---------
          |  24 -1 -41 |                                  det(A)


           | -38/58 4/58 48/58 |
(A)^(-1) = |  40/58 6/58  1/58 |
           | -24/58 1/58 41/58 |
---------------------------------------------------------------------
(B)^(-1) =  |  2  4 −6  |
            |  3  2  1  | 
            | −3 −7  9  |

w11 =  | Y  X  X  |
       | X  2  1  |  = |  2  1 | = (2)(9)-(-7)(1) = 18+7 = 25
       | X −7  9  |    | -7  9 | 

w12 =  |  X  Y  X  |
       |  3  X  1  | = |  3  1 | = (3)(9)-(-3)(1) = 27+3 = 30
       | −3  X  9  |   | -3  9 |

w13 =  |  X  X  Y  |
       |  3  2  X  | = |  3  2 | = (3)(-7)-(-3)(2) = -21+6 = -15 
       | −3 −7  X  |   | -3 -7 |

w21 =  | X  4 −6  |
       | Y  X  X  | = |  4 -6 | = (4)(9)-(-7)(-6) = 36-42 = -6
       | X −7  9  |   | -7  9 |

w22 =  |  2  X −6  |
       |  X  Y  X  | = |  2 -6 | = (2)(9)-(-3)(-6) = 18-18 = 0
       | −3  X  9  |   | -3  9 |

w23 =  |  2  4  X  |
       |  X  X  Y  | = |  2  4 | = (2)(-7)-(-3)(4) = -14+12 = -2
       | −3 −7  X  |   | -3 -7 |

w31 =  |  X  4 −6  |
       |  X  2  1  | = |  4 -6 | = (4)(1)-(2)(-6) = 4+12 = 16
       |  Y  X  X  |   |  2  1 |

w32 =  |  2  X −6  |
       |  3  X  1  | = |  2 -6 | = (2)(1)-(3)(-6) = 2+18 = 20
       |  X  Y  X  |   |  3  1 |

w33 =  |  2  4  X  |
       |  3  2  X  | = |  2  4 | = (2)(2)-(3)(4) = 4-12 = -8
       |  X  X  Y  |   |  3  2 |

adj(B) =  | ( 1)( 25)  (-1)( 30)  ( 1)(-15) |     |  25  -30  -15 |
          | (-1)( -6)  ( 1)(  0)  (-1)( -2) | =   |   6    0    2 | 
          | ( 1)( 16)  (-1)( 20)  ( 1)( -8) |     |  16  -20   -8 |

          |  25   6   16 |                                 adj(B)t
adj(B)t = | -30   0  -20 |    det(B) = 20      (B)^(-1) = ---------
          | -15   2   -8 |                                  det(B)


            |  25/20   6/20   16/20 |
(B)^(-1) =  | -30/20   0/20  -20/20 |
            | -15/20   2/20   -8/20 |

---------------------------------------------------------------------


 C = | −4 1 9 | 
     |  3 6 1 |
     | −7 8 0 |

w11 = |  Y X X | 
      |  X 6 1 | = | 6 1 | = (6)(0)-(8)(1) = 0-8 = -8
      |  X 8 0 |   | 8 0 |

w12 = |  X Y X | 
      |  3 X 1 | = |  3 1 | = (3)(0)-(-7)(1) = 0+7 = 7
      | −7 X 0 |   | -7 0 |

w13 = |  X X Y | 
      |  3 6 X | = |  3 6 | = (3)(8)-(-7)(6) = 24-42 = -18
      | −7 8 X |   | -7 8 |

w21 = |  X 1 9 | 
      |  Y X X | = | 1 9 | = (1)(0)-(8)(9) = 0-72 = -72
      |  X 8 0 |   | 8 0 |

w22 = | −4 X 9 | 
      |  X Y X | = | -4 9 | = (-4)(0)-(-7)(9) = 0+63 = 63
      | −7 X 0 |   | -7 0 |

w23 = | −4 1 X | 
      |  X X Y | = | -4 1 | = (-4)(8)-(-7)(1) = -32+7 = -25
      | −7 8 X |   | -7 8 |

w31 = |  X 1 9 | 
      |  X 6 1 | = | 1 9 | = (1)(1)-(6)(9) = 1-54 = -53
      |  Y X X |   | 6 1 |

w32 = | −4 X 9 | 
      |  3 X 1 | = | -4 9 | = (-4)(1)-(3)(9) = -4-27 = -31
      |  X Y X |   |  3 1 |

w33 = | −4 1 X | 
      |  3 6 X | = | -4 1 | = (-4)(6)-(3)(1) = -24-3 = -27
      |  X X Y |   |  3 6 |

adj(C) =  | ( 1)( -8)  (-1)(  7)  ( 1)(-18) |     |  -8   -7  -18 |
          | (-1)(-72)  ( 1)( 63)  (-1)(-25) | =   |  72   63   25 | 
          | ( 1)(-53)  (-1)(-31)  ( 1)(-27) |     | -53   31  -27 |

          |  -8  72  -53 |                                 adj(C)t
adj(C)t = |  -7  63   31 |    det(C) = 619     (C)^(-1) = ---------
          | -18  25  -27 |                                  det(C)

           |  -8/619  72/619  -53/619 |
(C)^(-1) = |  -7/619  63/619   31/619 |
           | -18/619  25/619  -27/619 |